%YAML 1.1
%TAG !u! tag:unity3d.com,2011:
--- !u!29 &1
OcclusionCullingSettings:
  m_ObjectHideFlags: 0
  serializedVersion: 2
  m_OcclusionBakeSettings:
    smallestOccluder: 5
    smallestHole: 0.25
    backfaceThreshold: 100
  m_SceneGUID: 00000000000000000000000000000000
  m_OcclusionCullingData: {fileID: 0}
--- !u!104 &2
RenderSettings:
  m_ObjectHideFlags: 0
  serializedVersion: 9
  m_Fog: 0
  m_FogColor: {r: 0.5, g: 0.5, b: 0.5, a: 1}
  m_FogMode: 3
  m_FogDensity: 0.01
  m_LinearFogStart: 0
  m_LinearFogEnd: 300
  m_AmbientSkyColor: {r: 0.212, g: 0.227, b: 0.259, a: 1}
  m_AmbientEquatorColor: {r: 0.114, g: 0.125, b: 0.133, a: 1}
  m_AmbientGroundColor: {r: 0.047, g: 0.043, b: 0.035, a: 1}
  m_AmbientIntensity: 1
  m_AmbientMode: 0
  m_SubtractiveShadowColor: {r: 0.42, g: 0.478, b: 0.627, a: 1}
  m_SkyboxMaterial: {fileID: 10304, guid: 0000000000000000f000000000000000, type: 0}
  m_HaloStrength: 0.5
  m_FlareStrength: 1
  m_FlareFadeSpeed: 3
  m_HaloTexture: {fileID: 0}
  m_SpotCookie: {fileID: 10001, guid: 0000000000000000e000000000000000, type: 0}
  m_DefaultReflectionMode: 0
  m_DefaultReflectionResolution: 128
  m_ReflectionBounces: 1
  m_ReflectionIntensity: 1
  m_CustomReflection: {fileID: 0}
  m_Sun: {fileID: 0}
  m_IndirectSpecularColor: {r: 0, g: 0, b: 0, a: 1}
  m_UseRadianceAmbientProbe: 0
--- !u!157 &3
LightmapSettings:
  m_ObjectHideFlags: 0
  serializedVersion: 11
  m_GIWorkflowMode: 0
  m_GISettings:
    serializedVersion: 2
    m_BounceScale: 1
    m_IndirectOutputScale: 1
    m_AlbedoBoost: 1
    m_EnvironmentLightingMode: 0
    m_EnableBakedLightmaps: 1
    m_EnableRealtimeLightmaps: 1
  m_LightmapEditorSettings:
    serializedVersion: 12
    m_Resolution: 2
    m_BakeResolution: 40
    m_AtlasSize: 1024
    m_AO: 0
    m_AOMaxDistance: 1
    m_CompAOExponent: 0
    m_CompAOExponentDirect: 0
    m_ExtractAmbientOcclusion: 0
    m_Padding: 2
    m_LightmapParameters: {fileID: 0}
    m_LightmapsBakeMode: 1
    m_TextureCompression: 1
    m_FinalGather: 0
    m_FinalGatherFiltering: 1
    m_FinalGatherRayCount: 1024
    m_ReflectionCompression: 2
    m_MixedBakeMode: 1
    m_BakeBackend: 0
    m_PVRSampling: 1
    m_PVRDirectSampleCount: 32
    m_PVRSampleCount: 500
    m_PVRBounces: 2
    m_PVREnvironmentSampleCount: 500
    m_PVREnvironmentReferencePointCount: 2048
    m_PVRFilteringMode: 2
    m_PVRDenoiserTypeDirect: 0
    m_PVRDenoiserTypeIndirect: 0
    m_PVRDenoiserTypeAO: 0
    m_PVRFilterTypeDirect: 0
    m_PVRFilterTypeIndirect: 0
    m_PVRFilterTypeAO: 0
    m_PVREnvironmentMIS: 0
    m_PVRCulling: 1
    m_PVRFilteringGaussRadiusDirect: 1
    m_PVRFilteringGaussRadiusIndirect: 5
    m_PVRFilteringGaussRadiusAO: 2
    m_PVRFilteringAtrousPositionSigmaDirect: 0.5
    m_PVRFilteringAtrousPositionSigmaIndirect: 2
    m_PVRFilteringAtrousPositionSigmaAO: 1
    m_ExportTrainingData: 0
    m_TrainingDataDestination: TrainingData
    m_LightProbeSampleCountMultiplier: 4
  m_LightingDataAsset: {fileID: 0}
  m_UseShadowmask: 0
--- !u!196 &4
NavMeshSettings:
  serializedVersion: 2
  m_ObjectHideFlags: 0
  m_BuildSettings:
    serializedVersion: 2
    agentTypeID: 0
    agentRadius: 0.5
    agentHeight: 2
    agentSlope: 45
    agentClimb: 0.4
    ledgeDropHeight: 0
    maxJumpAcrossDistance: 0
    minRegionArea: 2
    manualCellSize: 0
    cellSize: 0.16666667
    manualTileSize: 0
    tileSize: 256
    accuratePlacement: 0
    debug:
      m_Flags: 0
  m_NavMeshData: {fileID: 0}
--- !u!1 &121966930
GameObject:
  m_ObjectHideFlags: 0
  m_CorrespondingSourceObject: {fileID: 0}
  m_PrefabInstance: {fileID: 0}
  m_PrefabAsset: {fileID: 0}
  serializedVersion: 6
  m_Component:
  - component: {fileID: 121966933}
  - component: {fileID: 121966934}
  - component: {fileID: 121966932}
  - component: {fileID: 121966931}
  m_Layer: 8
  m_Name: Emitter
  m_TagString: Untagged
  m_Icon: {fileID: 0}
  m_NavMeshLayer: 0
  m_StaticEditorFlags: 0
  m_IsActive: 1
--- !u!114 &121966931
MonoBehaviour:
  m_ObjectHideFlags: 0
  m_CorrespondingSourceObject: {fileID: 0}
  m_PrefabInstance: {fileID: 0}
  m_PrefabAsset: {fileID: 0}
  m_GameObject: {fileID: 121966930}
  m_Enabled: 1
  m_EditorHideFlags: 0
  m_Script: {fileID: 11500000, guid: 7e0f9dbc2f19b44f58bd186fa841f61a, type: 3}
  m_Name: 
  m_EditorClassIdentifier: 
  emitter: {fileID: 121966932}
  color: {r: 1, g: 1, b: 1, a: 1}
  particleSize: 0.1
  distribution:
  - position: {x: 0, y: 0, z: 0}
    velocity: {x: 0, y: 0, z: 1}
    color: {r: 1, g: 1, b: 1, a: 1}
  - position: {x: 0.1, y: 0, z: 0}
    velocity: {x: 0, y: 0, z: 1}
    color: {r: 1, g: 1, b: 1, a: 1}
  - position: {x: 0.049999997, y: 0.086602546, z: 0}
    velocity: {x: 0, y: 0, z: 1}
    color: {r: 1, g: 1, b: 1, a: 1}
  - position: {x: -0.05000001, y: 0.08660254, z: 0}
    velocity: {x: 0, y: 0, z: 1}
    color: {r: 1, g: 1, b: 1, a: 1}
  - position: {x: -0.1, y: -0.000000008742278, z: 0}
    velocity: {x: 0, y: 0, z: 1}
    color: {r: 1, g: 1, b: 1, a: 1}
  - position: {x: -0.049999993, y: -0.086602546, z: 0}
    velocity: {x: 0, y: 0, z: 1}
    color: {r: 1, g: 1, b: 1, a: 1}
  - position: {x: 0.049999993, y: -0.086602546, z: 0}
    velocity: {x: 0, y: 0, z: 1}
    color: {r: 1, g: 1, b: 1, a: 1}
  - position: {x: 0.2, y: 0, z: 0}
    velocity: {x: 0, y: 0, z: 1}
    color: {r: 1, g: 1, b: 1, a: 1}
  - position: {x: 0.175, y: 0.09682458, z: 0}
    velocity: {x: 0, y: 0, z: 1}
    color: {r: 1, g: 1, b: 1, a: 1}
  - position: {x: 0.10625001, y: 0.16944301, z: 0}
    velocity: {x: 0, y: 0, z: 1}
    color: {r: 1, g: 1, b: 1, a: 1}
  - position: {x: 0.010937516, y: 0.1997007, z: 0}
    velocity: {x: 0, y: 0, z: 1}
    color: {r: 1, g: 1, b: 1, a: 1}
  - position: {x: -0.08710936, y: 0.18003322, z: 0}
    velocity: {x: 0, y: 0, z: 1}
    color: {r: 1, g: 1, b: 1, a: 1}
  - position: {x: -0.16337891, y: 0.115357414, z: 0}
    velocity: {x: 0, y: 0, z: 1}
    color: {r: 1, g: 1, b: 1, a: 1}
  - position: {x: -0.19880371, y: 0.021842297, z: 0}
    velocity: {x: 0, y: 0, z: 1}
    color: {r: 1, g: 1, b: 1, a: 1}
  - position: {x: -0.18452762, y: -0.077133395, z: 0}
    velocity: {x: 0, y: 0, z: 1}
    color: {r: 1, g: 1, b: 1, a: 1}
  - position: {x: -0.1241196, y: -0.15682578, z: 0}
    velocity: {x: 0, y: 0, z: 1}
    color: {r: 1, g: 1, b: 1, a: 1}
  - position: {x: -0.03268168, y: -0.1973117, z: 0}
    velocity: {x: 0, y: 0, z: 1}
    color: {r: 1, g: 1, b: 1, a: 1}
  - position: {x: 0.066926666, y: -0.1884697, z: 0}
    velocity: {x: 0, y: 0, z: 1}
    color: {r: 1, g: 1, b: 1, a: 1}
  - position: {x: 0.14980327, y: -0.13251029, z: 0}
    velocity: {x: 0, y: 0, z: 1}
    color: {r: 1, g: 1, b: 1, a: 1}
  - position: {x: 0.19522914, y: -0.043423295, z: 0}
    velocity: {x: 0, y: 0, z: 1}
    color: {r: 1, g: 1, b: 1, a: 1}
  radius: 0.25
  edgeEmission: 0
--- !u!114 &121966932
MonoBehaviour:
  m_ObjectHideFlags: 0
  m_CorrespondingSourceObject: {fileID: 0}
  m_PrefabInstance: {fileID: 0}
  m_PrefabAsset: {fileID: 0}
  m_GameObject: {fileID: 121966930}
  m_Enabled: 1
  m_EditorHideFlags: 0
  m_Script: {fileID: 11500000, guid: 78c37f4b1f0174c6ebfdf0e7b8af64a3, type: 3}
  m_Name: 
  m_EditorClassIdentifier: 
  m_CollisionMaterial: {fileID: 0}
  emitterBlueprint: {fileID: 11400000, guid: f16839f0bd45c4b8482269b480638501, type: 2}
  fluidPhase: 1
  emissionMethod: 0
  minPoolSize: 0.75
  speed: 4
  lifespan: 4
  randomVelocity: 0
  useShapeColor: 1
  emitterShapes:
  - {fileID: 121966931}
  life:
  - 4
  - 4
  - 4
  - 4
  - 4
  - 4
  - 4
  - 4
  - 4
  - 4
  - 4
  - 4
  - 4
  - 4
  - 4
  - 4
  - 4
  - 4
  - 4
  - 4
  - 4
  - 4
  - 4
  - 4
  - 4
  - 4
  - 4
  - 4
  - 4
  - 4
  - 4
  - 4
  - 4
  - 4
  - 4
  - 4
  - 4
  - 4
  - 4
  - 4
  - 4
  - 4
  - 4
  - 4
  - 4
  - 4
  - 4
  - 4
  - 4
  - 4
  - 4
  - 4
  - 4
  - 4
  - 4
  - 4
  - 4
  - 4
  - 4
  - 4
  - 4
  - 4
  - 4
  - 4
  - 4
  - 4
  - 4
  - 4
  - 4
  - 4
  - 4
  - 4
  - 4
  - 4
  - 4
  - 4
  - 4
  - 4
  - 4
  - 4
  - 4
  - 4
  - 4
  - 4
  - 4
  - 4
  - 4
  - 4
  - 4
  - 4
  - 4
  - 4
  - 4
  - 4
  - 4
  - 4
  - 4
  - 4
  - 4
  - 4
  - 4
  - 4
  - 4
  - 4
  - 4
  - 4
  - 4
  - 4
  - 4
  - 4
  - 4
  - 4
  - 4
  - 4
  - 4
  - 4
  - 4
  - 4
  - 4
  - 4
  - 4
  - 4
  - 4
  - 4
  - 4
  - 4
  - 4
  - 4
  - 4
  - 4
  - 4
  - 4
  - 4
  - 4
  - 4
  - 4
  - 4
  - 4
  - 4
  - 4
  - 4
  - 4
  - 4
  - 4
  - 4
  - 4
  - 4
  - 4
  - 4
  - 4
  - 4
  - 4
  - 4
  - 4
  - 4
  - 4
  - 4
  - 4
  - 4
  - 4
  - 4
  - 4
  - 4
  - 4
  - 4
  - 4
  - 4
  - 4
  - 4
  - 4
  - 4
  - 4
  - 4
  - 4
  - 4
  - 4
  - 4
  - 4
  - 4
  - 4
  - 4
  - 4
  - 4
  - 4
  - 4
  - 4
  - 4
  - 4
  - 4
  - 4
  - 4
  - 4
  - 4
  - 4
  - 4
  - 4
  - 4
  - 4
  - 4
  - 4
  - 4
  - 4
  - 4
  - 4
  - 4
  - 4
  - 4
  - 4
  - 4
  - 4
  - 4
  - 4
  - 4
  - 4
  - 4
  - 4
  - 4
  - 4
  - 4
  - 4
  - 4
  - 4
  - 4
  - 4
  - 4
  - 4
  - 4
  - 4
  - 4
  - 4
  - 4
  - 4
  - 4
  - 4
  - 4
  - 4
  - 4
  - 4
  - 4
  - 4
  - 4
  - 4
  - 4
  - 4
  - 4
  - 4
  - 4
  - 4
  - 4
  - 4
  - 4
  - 4
  - 4
  - 4
  - 4
  - 4
  - 4
  - 4
  - 4
  - 4
  - 4
  - 4
  - 4
  - 4
  - 4
  - 4
  - 4
  - 4
  - 4
  - 4
  - 4
  - 4
  - 4
  - 4
  - 4
  - 4
  - 4
  - 4
  - 4
  - 4
  - 4
  - 4
  - 4
  - 4
  - 4
  - 4
  - 4
  - 4
  - 4
  - 4
  - 4
  - 4
  - 4
  - 4
  - 4
  - 4
  - 4
  - 4
  - 4
  - 4
  - 4
  - 4
  - 4
  - 4
  - 4
  - 4
  - 4
  - 4
  - 4
  - 4
  - 4
  - 4
  - 4
  - 4
  - 4
  - 4
  - 4
  - 4
  - 4
  - 4
  - 4
  - 4
  - 4
  - 4
  - 4
  - 4
  - 4
  - 4
  - 4
  - 4
  - 4
  - 4
  - 4
  - 4
  - 4
  - 4
  - 4
  - 4
  - 4
  - 4
  - 4
  - 4
  - 4
  - 4
  - 4
  - 4
  - 4
  - 4
  - 4
  - 4
  - 4
  - 4
  - 4
  - 4
  - 4
  - 4
  - 4
  - 4
  - 4
  - 4
  - 4
  - 4
  - 4
  - 4
  - 4
  - 4
  - 4
  - 4
  - 4
  - 4
  - 4
  - 4
  - 4
  - 4
  - 4
  - 4
  - 4
  - 4
  - 4
  - 4
  - 4
  - 4
  - 4
  - 4
  - 4
  - 4
  - 4
  - 4
  - 4
  - 4
  - 4
  - 4
  - 4
  - 4
  - 4
  - 4
  - 4
  - 4
  - 4
  - 4
  - 4
  - 4
  - 4
  - 4
  - 4
  - 4
  - 4
  - 4
  - 4
  - 4
  - 4
  - 4
  - 4
  - 4
  - 4
  - 4
  - 4
  - 4
  - 4
  - 4
  - 4
  - 4
  - 4
  - 4
  - 4
  - 4
  - 4
  - 4
  - 4
  - 4
  - 4
  - 4
  - 4
  - 4
  - 4
  - 4
  - 4
  - 4
  - 4
  - 4
  - 4
  - 4
  - 4
  - 4
  - 4
  - 4
  - 4
  - 4
  - 4
  - 4
  - 4
  - 4
  - 4
  - 4
  - 4
  - 4
  - 4
  - 4
  - 4
  - 4
  - 4
  - 4
  - 4
  - 4
  - 4
  - 4
  - 4
  - 4
  - 4
  - 4
  - 4
  - 4
  - 4
  - 4
  - 4
  - 4
  - 4
  - 4
  - 4
  - 4
  - 4
  - 4
  - 4
  - 4
  - 4
  - 4
  - 4
  - 4
  - 4
  - 4
  - 4
  - 4
  - 4
  - 4
  - 4
  - 4
  - 4
  - 4
  - 4
  - 4
  - 4
  - 4
  - 4
  - 4
  - 4
  - 4
  - 4
  - 4
  - 4
  - 4
  - 4
  - 4
  - 4
  - 4
  - 4
  - 4
  - 4
  - 4
  - 4
  - 4
  - 4
  - 4
  - 4
  - 4
  - 4
  - 4
  - 4
  - 4
  - 4
  - 4
  - 4
  - 4
  - 4
  - 4
  - 4
  - 4
  - 4
  - 4
  - 4
  - 4
  - 4
  - 4
  - 4
  - 4
  - 4
  - 4
  - 4
  - 4
  - 4
  - 4
  - 4
  - 4
  - 4
  - 4
  - 4
  - 4
  - 4
  - 4
  - 4
  - 4
  - 4
  - 4
  - 4
  - 4
  - 4
  - 4
  - 4
  - 4
  - 4
  - 4
  - 4
  - 4
  - 4
  - 4
  - 4
  - 4
  - 4
  - 4
  - 4
  - 4
  - 4
  - 4
  - 4
  - 4
  - 4
  - 4
  - 4
  - 4
  - 4
  - 4
  - 4
  - 4
  - 4
  - 4
  - 4
  - 4
  - 4
  - 4
  - 4
  - 4
  - 4
  - 4
  - 4
  - 4
  - 4
  - 4
  - 4
  - 4
  - 4
  - 4
  - 4
  - 4
  - 4
  - 4
  - 4
  - 4
  - 4
  - 4
  - 4
  - 4
  - 4
  - 4
  - 4
  - 4
  - 4
  - 4
  - 4
  - 4
  - 4
  - 4
  - 4
  - 4
  - 4
  - 4
  - 4
  - 4
  - 4
  - 4
  - 4
  - 4
  - 4
  - 4
  - 4
  - 4
  - 4
  - 4
  - 4
  - 4
  - 4
  - 4
  - 4
  - 4
  - 4
  - 4
  - 4
  - 4
  - 4
  - 4
  - 4
  - 4
  - 4
  - 4
  - 4
  - 4
  - 4
  - 4
  - 4
  - 4
  - 4
  - 4
  - 4
  - 4
  - 4
  - 4
  - 4
  - 4
  - 4
  - 4
  - 4
  - 4
  - 4
  - 4
  - 4
  - 4
  - 4
  - 4
  - 4
  - 4
  - 4
  - 4
  - 4
  - 4
  - 4
  - 4
  - 4
  - 4
  - 4
  - 4
  - 4
  - 4
  - 4
  - 4
  - 4
  - 4
  - 4
  - 4
  - 4
  - 4
  - 4
  - 4
  - 4
  - 4
  - 4
  - 4
  - 4
  - 4
  - 4
  - 4
  - 4
  - 4
  - 4
  - 4
  - 4
  - 4
  - 4
  - 4
  - 4
  - 4
  - 4
  - 4
  - 4
  - 4
  - 4
  - 4
  - 4
  - 4
  - 4
  - 4
  - 4
  - 4
  - 4
  - 4
  - 4
  - 4
  - 4
  - 4
  - 4
  - 4
  - 4
  - 4
  - 4
  - 4
  - 4
  - 4
  - 4
  - 4
  - 4
  - 4
  - 4
  - 4
  - 4
  - 4
  - 4
  - 4
  - 4
  - 4
  - 4
  - 4
  - 4
  - 4
  - 4
  - 4
  - 4
  - 4
  - 4
  - 4
  - 4
  - 4
  - 4
  - 4
  - 4
  - 4
  - 4
  - 4
  - 4
  - 4
  - 4
  - 4
  - 4
  - 4
  - 4
  - 4
  - 4
  - 4
  - 4
  - 4
  - 4
  - 4
  - 4
  - 4
  - 4
  - 4
  - 4
  - 4
  - 4
  - 4
  - 4
  - 4
  - 4
  - 4
  - 4
  - 4
  - 4
  - 4
  - 4
  - 4
  - 4
  - 4
  - 4
  - 4
  - 4
  - 4
  - 4
  - 4
  - 4
  - 4
  - 4
  - 4
  - 4
  - 4
  - 4
  - 4
  - 4
  - 4
  - 4
  - 4
  - 4
  - 4
  - 4
  - 4
  - 4
  - 4
  - 4
  - 4
  - 4
  - 4
  - 4
  - 4
  - 4
  - 4
  - 4
  - 4
  - 4
  - 4
  - 4
  - 4
  - 4
  - 4
  - 4
  - 4
  - 4
  - 4
  - 4
  - 4
  - 4
  - 4
  - 4
  - 4
  - 4
  - 4
  - 4
  - 4
  - 4
  - 4
  - 4
  - 4
  - 4
  - 4
  - 4
  - 4
  - 4
  - 4
  - 4
  - 4
  - 4
  - 4
  - 4
  - 4
  - 4
  - 4
  - 4
  - 4
  - 4
  - 4
  - 4
  - 4
  - 4
  - 4
  - 4
  - 4
  - 4
  - 4
  - 4
  - 4
  - 4
  - 4
  - 4
  - 4
  - 4
  - 4
  - 4
  - 4
  - 4
  - 4
  - 4
  - 4
  - 4
  - 4
  - 4
  - 4
  - 4
  - 4
  - 4
  - 4
  - 4
  - 4
  - 4
  - 4
  - 4
  - 4
  - 4
  - 4
  - 4
  - 4
  - 4
  - 4
  - 4
  - 4
  - 4
  - 4
  - 4
  - 4
  - 4
  - 4
  - 4
  - 4
  - 4
  - 4
  - 4
  - 4
  - 4
  - 4
  - 4
  - 4
  - 4
  - 4
  - 4
  - 4
  - 4
  - 4
  - 4
  - 4
  - 4
  - 4
  - 4
  - 4
  - 4
  - 4
  - 4
  - 4
  - 4
  - 4
  - 4
  - 4
  - 4
  - 4
  - 4
  - 4
  - 4
  - 4
  - 4
  - 4
  - 4
  - 4
  - 4
  - 4
  - 4
  - 4
  - 4
  - 4
  - 4
  - 4
  - 4
  - 4
  - 4
  - 4
  - 4
  - 4
  - 4
  - 4
  - 4
  - 4
  - 4
  - 4
  - 4
  - 4
  - 4
  - 4
  - 4
  - 4
  - 4
  - 4
  - 4
  - 4
  - 4
  - 4
  - 4
  - 4
  - 4
  - 4
  - 4
  - 4
  - 4
  - 4
  - 4
  - 4
  - 4
  - 4
  - 4
  - 4
  - 4
  - 4
  - 4
  - 4
  - 4
  - 4
  - 4
  - 4
  - 4
  - 4
  - 4
  - 4
  - 4
  - 4
  - 4
  - 4
  - 4
  - 4
  - 4
  - 4
  - 4
  - 4
  - 4
  - 4
  - 4
  - 4
  - 4
  - 4
  - 4
  - 4
  - 4
  - 4
  - 4
  - 4
  - 4
  - 4
  - 4
  - 4
  - 4
  - 4
  - 4
  - 4
  - 4
  - 4
  - 4
  - 4
  - 4
  - 4
  - 4
  - 4
  - 4
  - 4
  - 4
  - 4
  - 4
  - 4
  - 4
  - 4
  - 4
  - 4
  - 4
  - 4
  - 4
  - 4
  - 4
  - 4
  - 4
  - 4
  - 4
  - 4
  - 4
  - 4
  - 4
  - 4
  - 4
  - 4
  - 4
  - 4
  - 4
  - 4
  - 4
  - 4
  - 4
  - 4
  - 4
  - 4
  - 4
  - 4
  - 4
  - 4
  - 4
  - 4
  - 4
  - 4
  - 4
  - 4
  - 4
  - 4
  - 4
  - 4
  - 4
  - 4
  - 4
  - 4
  - 4
  - 4
  - 4
  - 4
  - 4
  - 4
  - 4
  - 4
  - 4
  - 4
  - 4
  - 4
  - 4
  - 4
  - 4
  - 4
  - 4
  - 4
  - 4
  - 4
  - 4
  - 4
  - 4
  - 4
  - 4
  - 4
  - 4
  - 4
  - 4
  - 4
  - 4
  - 4
  - 4
  - 4
  - 4
  - 4
  - 4
  - 4
  - 4
  - 4
  - 4
  - 4
  - 4
  - 4
  - 4
  - 4
  - 4
  - 4
  - 4
  - 4
  - 4
  - 4
  - 4
  - 4
  - 4
  - 4
  - 4
  - 4
  - 4
  - 4
  - 4
  - 4
  - 4
  - 4
  - 4
  - 4
  - 4
  - 4
  - 4
  - 4
  - 4
  - 4
  - 4
  - 4
  - 4
  - 4
  - 4
  - 4
  - 4
  - 4
  - 4
  - 4
  - 4
  - 4
  - 4
  - 4
  - 4
  - 4
  - 4
  - 4
  - 4
  - 4
  - 4
  - 4
  - 4
  - 4
  - 4
  - 4
  - 4
  - 4
  - 4
  - 4
  - 4
  - 4
  - 4
  - 4
  - 4
  - 4
  - 4
  - 4
  - 4
  - 4
  - 4
  - 4
  - 4
  - 4
  - 4
  - 4
  - 4
  - 4
  - 4
  - 4
  - 4
  - 4
  - 4
  - 4
  - 4
  - 4
  - 4
  - 4
  - 4
  - 4
  - 4
  - 4
  - 4
  - 4
  - 4
  - 4
  - 4
  - 4
  - 4
  - 4
  - 4
  - 4
  - 4
  - 4
  - 4
  - 4
  - 4
  - 4
  - 4
  - 4
  - 4
  - 4
  - 4
  - 4
  - 4
  - 4
  - 4
  - 4
  - 4
  - 4
  - 4
  - 4
  - 4
  - 4
  - 4
  - 4
  - 4
  - 4
  - 4
  - 4
  - 4
  - 4
  - 4
  - 4
  - 4
  - 4
  - 4
  - 4
  - 4
  - 4
  - 4
  - 4
  - 4
  - 4
  - 4
  - 4
  - 4
  - 4
  - 4
  - 4
  - 4
  - 4
  - 4
  - 4
  - 4
  - 4
  - 4
  - 4
  - 4
  - 4
  - 4
  - 4
  - 4
  - 4
  - 4
  - 4
  - 4
  - 4
  - 4
  - 4
  - 4
  - 4
  - 4
  - 4
  - 4
  - 4
  - 4
  - 4
  - 4
  - 4
  - 4
  - 4
  - 4
  - 4
  - 4
  - 4
  - 4
  - 4
  - 4
  - 4
  - 4
  - 4
  - 4
  - 4
  - 4
  - 4
  - 4
  - 4
  - 4
  - 4
  - 4
  - 4
  - 4
  - 4
  - 4
  - 4
  - 4
  - 4
  - 4
  - 4
  - 4
  - 4
  - 4
  - 4
  - 4
  - 4
  - 4
  - 4
  - 4
  - 4
  - 4
  - 4
  - 4
  - 4
  - 4
  - 4
  - 4
  - 4
  - 4
  - 4
  - 4
  - 4
  - 4
  - 4
  - 4
  - 4
  - 4
  - 4
  - 4
  - 4
  - 4
  - 4
  - 4
  - 4
  - 4
  - 4
  - 4
  - 4
  - 4
  - 4
  - 4
  - 4
  - 4
  - 4
  - 4
  - 4
  - 4
  - 4
  - 4
  - 4
  - 4
  - 4
  - 4
  - 4
  - 4
  - 4
  - 4
  - 4
  - 4
  - 4
  - 4
  - 4
  - 4
  - 4
  - 4
  - 4
  - 4
  - 4
  - 4
  - 4
  - 4
  - 4
  - 4
  - 4
  - 4
  - 4
  - 4
  - 4
  - 4
  - 4
  - 4
  - 4
  - 4
  - 4
  - 4
  - 4
  - 4
  - 4
  - 4
  - 4
  - 4
  - 4
  - 4
  - 4
  - 4
  - 4
  - 4
  - 4
  - 4
  - 4
  - 4
  - 4
  - 4
  - 4
  - 4
  - 4
  - 4
  - 4
  - 4
  - 4
  - 4
  - 4
  - 4
  - 4
--- !u!4 &121966933
Transform:
  m_ObjectHideFlags: 0
  m_CorrespondingSourceObject: {fileID: 0}
  m_PrefabInstance: {fileID: 0}
  m_PrefabAsset: {fileID: 0}
  m_GameObject: {fileID: 121966930}
  m_LocalRotation: {x: 0.3412383, y: -0.61931914, z: 0.61931956, w: -0.34123817}
  m_LocalPosition: {x: -1.84, y: 3.94, z: 0}
  m_LocalScale: {x: 1, y: 1, z: 1}
  m_Children: []
  m_Father: {fileID: 335578780}
  m_RootOrder: 0
  m_LocalEulerAnglesHint: {x: 147.709, y: -90, z: 89.99999}
--- !u!114 &121966934
MonoBehaviour:
  m_ObjectHideFlags: 0
  m_CorrespondingSourceObject: {fileID: 0}
  m_PrefabInstance: {fileID: 0}
  m_PrefabAsset: {fileID: 0}
  m_GameObject: {fileID: 121966930}
  m_Enabled: 1
  m_EditorHideFlags: 0
  m_Script: {fileID: 11500000, guid: c8b45ebbf86be4df6b0e6cd933812af2, type: 3}
  m_Name: 
  m_EditorClassIdentifier: 
  render: 0
  shader: {fileID: 4800000, guid: 801733041f66b49e1b3c2101471db877, type: 3}
  particleColor: {r: 0.9852941, g: 0, b: 0, a: 0.5019608}
  radiusScale: 2
--- !u!1 &335578778
GameObject:
  m_ObjectHideFlags: 0
  m_CorrespondingSourceObject: {fileID: 0}
  m_PrefabInstance: {fileID: 0}
  m_PrefabAsset: {fileID: 0}
  serializedVersion: 6
  m_Component:
  - component: {fileID: 335578780}
  - component: {fileID: 335578779}
  - component: {fileID: 335578784}
  - component: {fileID: 335578781}
  m_Layer: 11
  m_Name: Solver
  m_TagString: Untagged
  m_Icon: {fileID: 0}
  m_NavMeshLayer: 0
  m_StaticEditorFlags: 0
  m_IsActive: 1
--- !u!114 &335578779
MonoBehaviour:
  m_ObjectHideFlags: 0
  m_CorrespondingSourceObject: {fileID: 0}
  m_PrefabInstance: {fileID: 0}
  m_PrefabAsset: {fileID: 0}
  m_GameObject: {fileID: 335578778}
  m_Enabled: 1
  m_EditorHideFlags: 0
  m_Script: {fileID: 11500000, guid: 9d174fab52f0c4b8399f25d5c3ea524c, type: 3}
  m_Name: 
  m_EditorClassIdentifier: 
  simulateWhenInvisible: 1
  m_Backend: 1
  parameters:
    mode: 0
    interpolation: 0
    gravity: {x: 0, y: -6, z: 0}
    damping: 0
    shockPropagation: 0
    maxAnisotropy: 3
    maxDepenetration: 5
    sleepThreshold: 0
  worldLinearInertiaScale: 0
  worldAngularInertiaScale: 0
  distanceConstraintParameters:
    evaluationOrder: 0
    iterations: 2
    SORFactor: 1
    enabled: 0
  bendingConstraintParameters:
    evaluationOrder: 1
    iterations: 1
    SORFactor: 1
    enabled: 0
  particleCollisionConstraintParameters:
    evaluationOrder: 0
    iterations: 6
    SORFactor: 1
    enabled: 0
  particleFrictionConstraintParameters:
    evaluationOrder: 1
    iterations: 3
    SORFactor: 1
    enabled: 1
  collisionConstraintParameters:
    evaluationOrder: 0
    iterations: 2
    SORFactor: 1
    enabled: 1
  frictionConstraintParameters:
    evaluationOrder: 1
    iterations: 3
    SORFactor: 1
    enabled: 1
  skinConstraintParameters:
    evaluationOrder: 0
    iterations: 3
    SORFactor: 1
    enabled: 0
  volumeConstraintParameters:
    evaluationOrder: 1
    iterations: 3
    SORFactor: 1
    enabled: 0
  shapeMatchingConstraintParameters:
    evaluationOrder: 1
    iterations: 3
    SORFactor: 1
    enabled: 1
  tetherConstraintParameters:
    evaluationOrder: 1
    iterations: 2
    SORFactor: 1
    enabled: 0
  pinConstraintParameters:
    evaluationOrder: 1
    iterations: 3
    SORFactor: 1
    enabled: 0
  stitchConstraintParameters:
    evaluationOrder: 1
    iterations: 2
    SORFactor: 1
    enabled: 1
  densityConstraintParameters:
    evaluationOrder: 1
    iterations: 2
    SORFactor: 1
    enabled: 1
  stretchShearConstraintParameters:
    evaluationOrder: 0
    iterations: 3
    SORFactor: 1
    enabled: 1
  bendTwistConstraintParameters:
    evaluationOrder: 0
    iterations: 3
    SORFactor: 1
    enabled: 1
  chainConstraintParameters:
    evaluationOrder: 0
    iterations: 3
    SORFactor: 1
    enabled: 0
--- !u!4 &335578780
Transform:
  m_ObjectHideFlags: 0
  m_CorrespondingSourceObject: {fileID: 0}
  m_PrefabInstance: {fileID: 0}
  m_PrefabAsset: {fileID: 0}
  m_GameObject: {fileID: 335578778}
  m_LocalRotation: {x: 0, y: 0, z: 0, w: 1}
  m_LocalPosition: {x: 0, y: 0, z: 0}
  m_LocalScale: {x: 1, y: 1, z: 1}
  m_Children:
  - {fileID: 121966933}
  m_Father: {fileID: 0}
  m_RootOrder: 3
  m_LocalEulerAnglesHint: {x: 0, y: 0, z: 0}
--- !u!114 &335578781
MonoBehaviour:
  m_ObjectHideFlags: 0
  m_CorrespondingSourceObject: {fileID: 0}
  m_PrefabInstance: {fileID: 0}
  m_PrefabAsset: {fileID: 0}
  m_GameObject: {fileID: 335578778}
  m_Enabled: 1
  m_EditorHideFlags: 0
  m_Script: {fileID: 11500000, guid: 1d9704d540ac448439a425526f6b2986, type: 3}
  m_Name: 
  m_EditorClassIdentifier: 
  solvers:
  - {fileID: 335578779}
  substepUnityPhysics: 0
  substeps: 1
--- !u!114 &335578784
MonoBehaviour:
  m_ObjectHideFlags: 0
  m_CorrespondingSourceObject: {fileID: 0}
  m_PrefabInstance: {fileID: 0}
  m_PrefabAsset: {fileID: 0}
  m_GameObject: {fileID: 335578778}
  m_Enabled: 0
  m_EditorHideFlags: 0
  m_Script: {fileID: 11500000, guid: 12c0ac28542b14de6a887a6a9067d86d, type: 3}
  m_Name: 
  m_EditorClassIdentifier: 
--- !u!1 &1137808981
GameObject:
  m_ObjectHideFlags: 0
  m_CorrespondingSourceObject: {fileID: 0}
  m_PrefabInstance: {fileID: 0}
  m_PrefabAsset: {fileID: 0}
  serializedVersion: 6
  m_Component:
  - component: {fileID: 1137808983}
  - component: {fileID: 1137808982}
  - component: {fileID: 1137808984}
  m_Layer: 0
  m_Name: Directional Light
  m_TagString: Untagged
  m_Icon: {fileID: 0}
  m_NavMeshLayer: 0
  m_StaticEditorFlags: 0
  m_IsActive: 1
--- !u!108 &1137808982
Light:
  m_ObjectHideFlags: 0
  m_CorrespondingSourceObject: {fileID: 0}
  m_PrefabInstance: {fileID: 0}
  m_PrefabAsset: {fileID: 0}
  m_GameObject: {fileID: 1137808981}
  m_Enabled: 1
  serializedVersion: 10
  m_Type: 1
  m_Shape: 0
  m_Color: {r: 1, g: 0.95686275, b: 0.8392157, a: 1}
  m_Intensity: 1
  m_Range: 10
  m_SpotAngle: 30
  m_InnerSpotAngle: 21.802082
  m_CookieSize: 10
  m_Shadows:
    m_Type: 2
    m_Resolution: -1
    m_CustomResolution: -1
    m_Strength: 1
    m_Bias: 0.05
    m_NormalBias: 0.4
    m_NearPlane: 0.2
    m_CullingMatrixOverride:
      e00: 1
      e01: 0
      e02: 0
      e03: 0
      e10: 0
      e11: 1
      e12: 0
      e13: 0
      e20: 0
      e21: 0
      e22: 1
      e23: 0
      e30: 0
      e31: 0
      e32: 0
      e33: 1
    m_UseCullingMatrixOverride: 0
  m_Cookie: {fileID: 0}
  m_DrawHalo: 0
  m_Flare: {fileID: 0}
  m_RenderMode: 0
  m_CullingMask:
    serializedVersion: 2
    m_Bits: 4294967295
  m_RenderingLayerMask: 1
  m_Lightmapping: 4
  m_LightShadowCasterMode: 0
  m_AreaSize: {x: 1, y: 1}
  m_BounceIntensity: 1
  m_ColorTemperature: 6570
  m_UseColorTemperature: 0
  m_BoundingSphereOverride: {x: 0, y: 0, z: 0, w: 0}
  m_UseBoundingSphereOverride: 0
  m_ShadowRadius: 0
  m_ShadowAngle: 0
--- !u!4 &1137808983
Transform:
  m_ObjectHideFlags: 0
  m_CorrespondingSourceObject: {fileID: 0}
  m_PrefabInstance: {fileID: 0}
  m_PrefabAsset: {fileID: 0}
  m_GameObject: {fileID: 1137808981}
  m_LocalRotation: {x: 0.5302501, y: -0.05058743, z: 0.048262734, w: 0.8449536}
  m_LocalPosition: {x: 0, y: 3, z: 0}
  m_LocalScale: {x: 1, y: 1, z: 1}
  m_Children: []
  m_Father: {fileID: 0}
  m_RootOrder: 2
  m_LocalEulerAnglesHint: {x: 64.284004, y: -4.5350003, z: 3.6880002}
--- !u!114 &1137808984
MonoBehaviour:
  m_ObjectHideFlags: 0
  m_CorrespondingSourceObject: {fileID: 0}
  m_PrefabInstance: {fileID: 0}
  m_PrefabAsset: {fileID: 0}
  m_GameObject: {fileID: 1137808981}
  m_Enabled: 1
  m_EditorHideFlags: 0
  m_Script: {fileID: 11500000, guid: dbf7247281ef14860853fa0ee2cb4829, type: 3}
  m_Name: 
  m_EditorClassIdentifier: 
  particleRenderers:
  - {fileID: 121966934}
--- !u!1 &1216403307
GameObject:
  m_ObjectHideFlags: 0
  m_CorrespondingSourceObject: {fileID: 0}
  m_PrefabInstance: {fileID: 0}
  m_PrefabAsset: {fileID: 0}
  serializedVersion: 6
  m_Component:
  - component: {fileID: 1216403311}
  - component: {fileID: 1216403310}
  - component: {fileID: 1216403309}
  - component: {fileID: 1216403308}
  - component: {fileID: 1216403312}
  - component: {fileID: 1216403314}
  - component: {fileID: 1216403313}
  m_Layer: 0
  m_Name: Cube
  m_TagString: Untagged
  m_Icon: {fileID: 0}
  m_NavMeshLayer: 0
  m_StaticEditorFlags: 0
  m_IsActive: 1
--- !u!23 &1216403308
MeshRenderer:
  m_ObjectHideFlags: 0
  m_CorrespondingSourceObject: {fileID: 0}
  m_PrefabInstance: {fileID: 0}
  m_PrefabAsset: {fileID: 0}
  m_GameObject: {fileID: 1216403307}
  m_Enabled: 1
  m_CastShadows: 1
  m_ReceiveShadows: 1
  m_DynamicOccludee: 1
  m_MotionVectors: 1
  m_LightProbeUsage: 1
  m_ReflectionProbeUsage: 1
  m_RayTracingMode: 2
  m_RenderingLayerMask: 4294967295
  m_RendererPriority: 0
  m_Materials:
  - {fileID: 2100000, guid: 22451ea3bd268401796b02a7b7573725, type: 2}
  m_StaticBatchInfo:
    firstSubMesh: 0
    subMeshCount: 0
  m_StaticBatchRoot: {fileID: 0}
  m_ProbeAnchor: {fileID: 0}
  m_LightProbeVolumeOverride: {fileID: 0}
  m_ScaleInLightmap: 1
  m_ReceiveGI: 1
  m_PreserveUVs: 1
  m_IgnoreNormalsForChartDetection: 0
  m_ImportantGI: 0
  m_StitchLightmapSeams: 0
  m_SelectedEditorRenderState: 3
  m_MinimumChartSize: 4
  m_AutoUVMaxDistance: 0.5
  m_AutoUVMaxAngle: 89
  m_LightmapParameters: {fileID: 0}
  m_SortingLayerID: 0
  m_SortingLayer: 0
  m_SortingOrder: 0
--- !u!65 &1216403309
BoxCollider:
  m_ObjectHideFlags: 0
  m_CorrespondingSourceObject: {fileID: 0}
  m_PrefabInstance: {fileID: 0}
  m_PrefabAsset: {fileID: 0}
  m_GameObject: {fileID: 1216403307}
  m_Material: {fileID: 0}
  m_IsTrigger: 0
  m_Enabled: 1
  serializedVersion: 2
  m_Size: {x: 1, y: 1, z: 1}
  m_Center: {x: 0, y: 0, z: 0}
--- !u!33 &1216403310
MeshFilter:
  m_ObjectHideFlags: 0
  m_CorrespondingSourceObject: {fileID: 0}
  m_PrefabInstance: {fileID: 0}
  m_PrefabAsset: {fileID: 0}
  m_GameObject: {fileID: 1216403307}
  m_Mesh: {fileID: 10202, guid: 0000000000000000e000000000000000, type: 0}
--- !u!4 &1216403311
Transform:
  m_ObjectHideFlags: 0
  m_CorrespondingSourceObject: {fileID: 0}
  m_PrefabInstance: {fileID: 0}
  m_PrefabAsset: {fileID: 0}
  m_GameObject: {fileID: 1216403307}
  m_LocalRotation: {x: 0, y: 0, z: 0, w: 1}
  m_LocalPosition: {x: 0.32, y: 2.38, z: 0}
  m_LocalScale: {x: 2, y: 0.2, z: 1}
  m_Children:
  - {fileID: 2043550581}
  m_Father: {fileID: 0}
  m_RootOrder: 4
  m_LocalEulerAnglesHint: {x: 0, y: 0, z: 0}
--- !u!54 &1216403312
Rigidbody:
  m_ObjectHideFlags: 0
  m_CorrespondingSourceObject: {fileID: 0}
  m_PrefabInstance: {fileID: 0}
  m_PrefabAsset: {fileID: 0}
  m_GameObject: {fileID: 1216403307}
  serializedVersion: 2
  m_Mass: 100
  m_Drag: 0
  m_AngularDrag: 2
  m_UseGravity: 1
  m_IsKinematic: 0
  m_Interpolate: 0
  m_Constraints: 62
  m_CollisionDetection: 0
--- !u!114 &1216403313
MonoBehaviour:
  m_ObjectHideFlags: 0
  m_CorrespondingSourceObject: {fileID: 0}
  m_PrefabInstance: {fileID: 0}
  m_PrefabAsset: {fileID: 0}
  m_GameObject: {fileID: 1216403307}
  m_Enabled: 1
  m_EditorHideFlags: 0
  m_Script: {fileID: 11500000, guid: 6757b231cedd544c583ef8aeaf773b2a, type: 3}
  m_Name: 
  m_EditorClassIdentifier: 
  material: {fileID: 0}
  phase: 0
  thickness: 0
  m_SourceCollider: {fileID: 1216403309}
  m_DistanceField: {fileID: 0}
--- !u!114 &1216403314
MonoBehaviour:
  m_ObjectHideFlags: 0
  m_CorrespondingSourceObject: {fileID: 0}
  m_PrefabInstance: {fileID: 0}
  m_PrefabAsset: {fileID: 0}
  m_GameObject: {fileID: 1216403307}
  m_Enabled: 1
  m_EditorHideFlags: 0
  m_Script: {fileID: 11500000, guid: 62359d80fdc0e4315ab6331b78ec5b90, type: 3}
  m_Name: 
  m_EditorClassIdentifier: 
  kinematicForParticles: 0
--- !u!1 &1558485325
GameObject:
  m_ObjectHideFlags: 0
  m_CorrespondingSourceObject: {fileID: 0}
  m_PrefabInstance: {fileID: 0}
  m_PrefabAsset: {fileID: 0}
  serializedVersion: 6
  m_Component:
  - component: {fileID: 1558485327}
  - component: {fileID: 1558485326}
  m_Layer: 0
  m_Name: OniCollisionWorld
  m_TagString: Untagged
  m_Icon: {fileID: 0}
  m_NavMeshLayer: 0
  m_StaticEditorFlags: 0
  m_IsActive: 1
--- !u!114 &1558485326
MonoBehaviour:
  m_ObjectHideFlags: 0
  m_CorrespondingSourceObject: {fileID: 0}
  m_PrefabInstance: {fileID: 0}
  m_PrefabAsset: {fileID: 0}
  m_GameObject: {fileID: 1558485325}
  m_Enabled: 1
  m_EditorHideFlags: 0
  m_Script: {fileID: 11500000, guid: d02d25c24c8574316883c920912e4fdb, type: 3}
  m_Name: 
  m_EditorClassIdentifier: 
--- !u!4 &1558485327
Transform:
  m_ObjectHideFlags: 0
  m_CorrespondingSourceObject: {fileID: 0}
  m_PrefabInstance: {fileID: 0}
  m_PrefabAsset: {fileID: 0}
  m_GameObject: {fileID: 1558485325}
  m_LocalRotation: {x: 0, y: 0, z: 0, w: 1}
  m_LocalPosition: {x: 0, y: 0, z: 0}
  m_LocalScale: {x: 1, y: 1, z: 1}
  m_Children: []
  m_Father: {fileID: 0}
  m_RootOrder: 6
  m_LocalEulerAnglesHint: {x: 0, y: 0, z: 0}
--- !u!1 &1589700489
GameObject:
  m_ObjectHideFlags: 0
  m_CorrespondingSourceObject: {fileID: 0}
  m_PrefabInstance: {fileID: 0}
  m_PrefabAsset: {fileID: 0}
  serializedVersion: 6
  m_Component:
  - component: {fileID: 1589700491}
  - component: {fileID: 1589700490}
  m_Layer: 0
  m_Name: BurstCollisionWorld
  m_TagString: Untagged
  m_Icon: {fileID: 0}
  m_NavMeshLayer: 0
  m_StaticEditorFlags: 0
  m_IsActive: 1
--- !u!114 &1589700490
MonoBehaviour:
  m_ObjectHideFlags: 0
  m_CorrespondingSourceObject: {fileID: 0}
  m_PrefabInstance: {fileID: 0}
  m_PrefabAsset: {fileID: 0}
  m_GameObject: {fileID: 1589700489}
  m_Enabled: 1
  m_EditorHideFlags: 0
  m_Script: {fileID: 11500000, guid: f1a161c4294214a4fbcb7e9e94800494, type: 3}
  m_Name: 
  m_EditorClassIdentifier: 
  cellSpans: {}
--- !u!4 &1589700491
Transform:
  m_ObjectHideFlags: 0
  m_CorrespondingSourceObject: {fileID: 0}
  m_PrefabInstance: {fileID: 0}
  m_PrefabAsset: {fileID: 0}
  m_GameObject: {fileID: 1589700489}
  m_LocalRotation: {x: 0, y: 0, z: 0, w: 1}
  m_LocalPosition: {x: 0, y: 0, z: 0}
  m_LocalScale: {x: 1, y: 1, z: 1}
  m_Children: []
  m_Father: {fileID: 0}
  m_RootOrder: 5
  m_LocalEulerAnglesHint: {x: 0, y: 0, z: 0}
--- !u!1001 &1592737018
PrefabInstance:
  m_ObjectHideFlags: 0
  serializedVersion: 2
  m_Modification:
    m_TransformParent: {fileID: 0}
    m_Modifications:
    - target: {fileID: 400000, guid: 64df75de10b494f109b074d28a8eade0, type: 3}
      propertyPath: m_LocalPosition.x
      value: 0
      objectReference: {fileID: 0}
    - target: {fileID: 400000, guid: 64df75de10b494f109b074d28a8eade0, type: 3}
      propertyPath: m_LocalPosition.y
      value: 0
      objectReference: {fileID: 0}
    - target: {fileID: 400000, guid: 64df75de10b494f109b074d28a8eade0, type: 3}
      propertyPath: m_LocalPosition.z
      value: 0
      objectReference: {fileID: 0}
    - target: {fileID: 400000, guid: 64df75de10b494f109b074d28a8eade0, type: 3}
      propertyPath: m_LocalRotation.x
      value: 0
      objectReference: {fileID: 0}
    - target: {fileID: 400000, guid: 64df75de10b494f109b074d28a8eade0, type: 3}
      propertyPath: m_LocalRotation.y
      value: -0
      objectReference: {fileID: 0}
    - target: {fileID: 400000, guid: 64df75de10b494f109b074d28a8eade0, type: 3}
      propertyPath: m_LocalRotation.z
      value: -0
      objectReference: {fileID: 0}
    - target: {fileID: 400000, guid: 64df75de10b494f109b074d28a8eade0, type: 3}
      propertyPath: m_LocalRotation.w
      value: 1
      objectReference: {fileID: 0}
    - target: {fileID: 400000, guid: 64df75de10b494f109b074d28a8eade0, type: 3}
      propertyPath: m_RootOrder
      value: 1
      objectReference: {fileID: 0}
    - target: {fileID: 2300000, guid: 64df75de10b494f109b074d28a8eade0, type: 3}
      propertyPath: m_Materials.Array.data[0]
      value: 
      objectReference: {fileID: 2100000, guid: e78e1b735e05b4dee88b279cb6997001, type: 2}
    m_RemovedComponents: []
  m_SourcePrefab: {fileID: 100100000, guid: 64df75de10b494f109b074d28a8eade0, type: 3}
--- !u!1 &1592737019 stripped
GameObject:
  m_CorrespondingSourceObject: {fileID: 100000, guid: 64df75de10b494f109b074d28a8eade0,
    type: 3}
  m_PrefabInstance: {fileID: 1592737018}
  m_PrefabAsset: {fileID: 0}
--- !u!64 &1592737020
MeshCollider:
  m_ObjectHideFlags: 0
  m_CorrespondingSourceObject: {fileID: 0}
  m_PrefabInstance: {fileID: 0}
  m_PrefabAsset: {fileID: 0}
  m_GameObject: {fileID: 1592737019}
  m_Material: {fileID: 0}
  m_IsTrigger: 0
  m_Enabled: 1
  serializedVersion: 4
  m_Convex: 0
  m_CookingOptions: 30
  m_Mesh: {fileID: 4300000, guid: 64df75de10b494f109b074d28a8eade0, type: 3}
--- !u!114 &1592737024
MonoBehaviour:
  m_ObjectHideFlags: 0
  m_CorrespondingSourceObject: {fileID: 0}
  m_PrefabInstance: {fileID: 0}
  m_PrefabAsset: {fileID: 0}
  m_GameObject: {fileID: 1592737019}
  m_Enabled: 1
  m_EditorHideFlags: 0
  m_Script: {fileID: 11500000, guid: 6757b231cedd544c583ef8aeaf773b2a, type: 3}
  m_Name: 
  m_EditorClassIdentifier: 
  material: {fileID: 11400000, guid: d368f2c47473d4bfb8dd9f08073cb403, type: 2}
  phase: 0
  thickness: 0
  m_SourceCollider: {fileID: 1592737020}
  m_DistanceField: {fileID: 11400000, guid: 5eb5ff1af3a3f4a14977448198c232ae, type: 2}
--- !u!1 &1805759508
GameObject:
  m_ObjectHideFlags: 0
  m_CorrespondingSourceObject: {fileID: 0}
  m_PrefabInstance: {fileID: 0}
  m_PrefabAsset: {fileID: 0}
  serializedVersion: 6
  m_Component:
  - component: {fileID: 1805759513}
  - component: {fileID: 1805759512}
  - component: {fileID: 1805759510}
  - component: {fileID: 1805759509}
  - component: {fileID: 1805759517}
  - component: {fileID: 1805759511}
  m_Layer: 0
  m_Name: Main Camera
  m_TagString: MainCamera
  m_Icon: {fileID: 0}
  m_NavMeshLayer: 0
  m_StaticEditorFlags: 0
  m_IsActive: 1
--- !u!81 &1805759509
AudioListener:
  m_ObjectHideFlags: 0
  m_CorrespondingSourceObject: {fileID: 0}
  m_PrefabInstance: {fileID: 0}
  m_PrefabAsset: {fileID: 0}
  m_GameObject: {fileID: 1805759508}
  m_Enabled: 1
--- !u!124 &1805759510
Behaviour:
  m_ObjectHideFlags: 0
  m_CorrespondingSourceObject: {fileID: 0}
  m_PrefabInstance: {fileID: 0}
  m_PrefabAsset: {fileID: 0}
  m_GameObject: {fileID: 1805759508}
  m_Enabled: 1
--- !u!114 &1805759511
MonoBehaviour:
  m_ObjectHideFlags: 0
  m_CorrespondingSourceObject: {fileID: 0}
  m_PrefabInstance: {fileID: 0}
  m_PrefabAsset: {fileID: 0}
  m_GameObject: {fileID: 1805759508}
  m_Enabled: 1
  m_EditorHideFlags: 0
  m_Script: {fileID: 11500000, guid: 2c1a04b0b1141422fb89a6def170146d, type: 3}
  m_Name: 
  m_EditorClassIdentifier: 
  particleRenderers:
  - {fileID: 121966934}
  settings:
    blendSource: 5
    blendDestination: 10
    particleBlendSource: 2
    particleBlendDestination: 0
    particleZWrite: 0
    thicknessCutoff: 1.2
    thicknessDownsample: 2
    generateSurface: 1
    blurRadius: 0.02
    surfaceDownsample: 1
    lighting: 1
    smoothness: 0.8
    metalness: 0
    ambientMultiplier: 1
    generateReflection: 1
    reflection: 0.2
    generateRefraction: 1
    transparency: 1
    absorption: 5
    refraction: 0.01
    refractionDownsample: 1
    generateFoam: 1
    foamDownsample: 1
--- !u!20 &1805759512
Camera:
  m_ObjectHideFlags: 0
  m_CorrespondingSourceObject: {fileID: 0}
  m_PrefabInstance: {fileID: 0}
  m_PrefabAsset: {fileID: 0}
  m_GameObject: {fileID: 1805759508}
  m_Enabled: 1
  serializedVersion: 2
  m_ClearFlags: 1
  m_BackGroundColor: {r: 0.14827585, g: 0.14827585, b: 0.14827585, a: 0.019607844}
  m_projectionMatrixMode: 1
  m_GateFitMode: 2
  m_FOVAxisMode: 0
  m_SensorSize: {x: 36, y: 24}
  m_LensShift: {x: 0, y: 0}
  m_FocalLength: 50
  m_NormalizedViewPortRect:
    serializedVersion: 2
    x: 0
    y: 0
    width: 1
    height: 1
  near clip plane: 0.3
  far clip plane: 1000
  field of view: 60
  orthographic: 0
  orthographic size: 3.6
  m_Depth: -1
  m_CullingMask:
    serializedVersion: 2
    m_Bits: 4294967295
  m_RenderingPath: -1
  m_TargetTexture: {fileID: 0}
  m_TargetDisplay: 0
  m_TargetEye: 3
  m_HDR: 0
  m_AllowMSAA: 1
  m_AllowDynamicResolution: 0
  m_ForceIntoRT: 1
  m_OcclusionCulling: 1
  m_StereoConvergence: 10
  m_StereoSeparation: 0.022
--- !u!4 &1805759513
Transform:
  m_ObjectHideFlags: 0
  m_CorrespondingSourceObject: {fileID: 0}
  m_PrefabInstance: {fileID: 0}
  m_PrefabAsset: {fileID: 0}
  m_GameObject: {fileID: 1805759508}
  m_LocalRotation: {x: 0, y: 0, z: 0, w: 1}
  m_LocalPosition: {x: 0, y: 2.5, z: -5.98}
  m_LocalScale: {x: 1, y: 1, z: 1}
  m_Children: []
  m_Father: {fileID: 0}
  m_RootOrder: 0
  m_LocalEulerAnglesHint: {x: 0, y: 0, z: 0}
--- !u!114 &1805759517
MonoBehaviour:
  m_ObjectHideFlags: 0
  m_CorrespondingSourceObject: {fileID: 0}
  m_PrefabInstance: {fileID: 0}
  m_PrefabAsset: {fileID: 0}
  m_GameObject: {fileID: 1805759508}
  m_Enabled: 0
  m_EditorHideFlags: 0
  m_Script: {fileID: 11500000, guid: 62e83a599724f45a4aa337d74764e572, type: 3}
  m_Name: 
  m_EditorClassIdentifier: 
  skin: {fileID: 11400000, guid: b90d3c214c99743b0865fc0e0d1f1a15, type: 2}
  threadColor: {r: 0, g: 1, b: 1, a: 1}
  taskColor: {r: 0, g: 1, b: 0, a: 1}
  parallelTaskColor: {r: 1, g: 0.8, b: 0.2, a: 1}
  renderTaskColor: {r: 0.2, g: 0.7, b: 1, a: 1}
  defaultTaskColor: {r: 1, g: 0.5, b: 0.2, a: 1}
  showPercentages: 1
  profileThrottle: 30
--- !u!1 &2043550577
GameObject:
  m_ObjectHideFlags: 0
  m_CorrespondingSourceObject: {fileID: 0}
  m_PrefabInstance: {fileID: 0}
  m_PrefabAsset: {fileID: 0}
  serializedVersion: 6
  m_Component:
  - component: {fileID: 2043550581}
  - component: {fileID: 2043550580}
  - component: {fileID: 2043550579}
  - component: {fileID: 2043550578}
  - component: {fileID: 2043550582}
  m_Layer: 0
  m_Name: Cube (1)
  m_TagString: Untagged
  m_Icon: {fileID: 0}
  m_NavMeshLayer: 0
  m_StaticEditorFlags: 0
  m_IsActive: 1
--- !u!23 &2043550578
MeshRenderer:
  m_ObjectHideFlags: 0
  m_CorrespondingSourceObject: {fileID: 0}
  m_PrefabInstance: {fileID: 0}
  m_PrefabAsset: {fileID: 0}
  m_GameObject: {fileID: 2043550577}
  m_Enabled: 1
  m_CastShadows: 1
  m_ReceiveShadows: 1
  m_DynamicOccludee: 1
  m_MotionVectors: 1
  m_LightProbeUsage: 1
  m_ReflectionProbeUsage: 1
  m_RayTracingMode: 2
  m_RenderingLayerMask: 4294967295
  m_RendererPriority: 0
  m_Materials:
  - {fileID: 2100000, guid: 22451ea3bd268401796b02a7b7573725, type: 2}
  m_StaticBatchInfo:
    firstSubMesh: 0
    subMeshCount: 0
  m_StaticBatchRoot: {fileID: 0}
  m_ProbeAnchor: {fileID: 0}
  m_LightProbeVolumeOverride: {fileID: 0}
  m_ScaleInLightmap: 1
  m_ReceiveGI: 1
  m_PreserveUVs: 1
  m_IgnoreNormalsForChartDetection: 0
  m_ImportantGI: 0
  m_StitchLightmapSeams: 0
  m_SelectedEditorRenderState: 3
  m_MinimumChartSize: 4
  m_AutoUVMaxDistance: 0.5
  m_AutoUVMaxAngle: 89
  m_LightmapParameters: {fileID: 0}
  m_SortingLayerID: 0
  m_SortingLayer: 0
  m_SortingOrder: 0
--- !u!65 &2043550579
BoxCollider:
  m_ObjectHideFlags: 0
  m_CorrespondingSourceObject: {fileID: 0}
  m_PrefabInstance: {fileID: 0}
  m_PrefabAsset: {fileID: 0}
  m_GameObject: {fileID: 2043550577}
  m_Material: {fileID: 0}
  m_IsTrigger: 0
  m_Enabled: 1
  serializedVersion: 2
  m_Size: {x: 1, y: 1, z: 1}
  m_Center: {x: 0, y: 0, z: 0}
--- !u!33 &2043550580
MeshFilter:
  m_ObjectHideFlags: 0
  m_CorrespondingSourceObject: {fileID: 0}
  m_PrefabInstance: {fileID: 0}
  m_PrefabAsset: {fileID: 0}
  m_GameObject: {fileID: 2043550577}
  m_Mesh: {fileID: 10202, guid: 0000000000000000e000000000000000, type: 0}
--- !u!4 &2043550581
Transform:
  m_ObjectHideFlags: 0
  m_CorrespondingSourceObject: {fileID: 0}
  m_PrefabInstance: {fileID: 0}
  m_PrefabAsset: {fileID: 0}
  m_GameObject: {fileID: 2043550577}
  m_LocalRotation: {x: -0, y: -0, z: 0.7071068, w: 0.7071068}
  m_LocalPosition: {x: 0, y: 0, z: 0}
  m_LocalScale: {x: 10, y: 0.10000006, z: 1}
  m_Children: []
  m_Father: {fileID: 1216403311}
  m_RootOrder: 0
  m_LocalEulerAnglesHint: {x: 0, y: 0, z: 90}
--- !u!114 &2043550582
MonoBehaviour:
  m_ObjectHideFlags: 0
  m_CorrespondingSourceObject: {fileID: 0}
  m_PrefabInstance: {fileID: 0}
  m_PrefabAsset: {fileID: 0}
  m_GameObject: {fileID: 2043550577}
  m_Enabled: 1
  m_EditorHideFlags: 0
  m_Script: {fileID: 11500000, guid: 6757b231cedd544c583ef8aeaf773b2a, type: 3}
  m_Name: 
  m_EditorClassIdentifier: 
  material: {fileID: 0}
  phase: 0
  thickness: 0
  m_SourceCollider: {fileID: 2043550579}
  m_DistanceField: {fileID: 0}
