%YAML 1.1
%TAG !u! tag:unity3d.com,2011:
--- !u!1 &6207594749824554169
GameObject:
  m_ObjectHideFlags: 0
  m_CorrespondingSourceObject: {fileID: 0}
  m_PrefabInstance: {fileID: 0}
  m_PrefabAsset: {fileID: 0}
  serializedVersion: 6
  m_Component:
  - component: {fileID: 4633125770816774209}
  m_Layer: 0
  m_Name: Glass
  m_TagString: Untagged
  m_Icon: {fileID: 0}
  m_NavMeshLayer: 0
  m_StaticEditorFlags: 0
  m_IsActive: 1
--- !u!4 &4633125770816774209
Transform:
  m_ObjectHideFlags: 0
  m_CorrespondingSourceObject: {fileID: 0}
  m_PrefabInstance: {fileID: 0}
  m_PrefabAsset: {fileID: 0}
  m_GameObject: {fileID: 6207594749824554169}
  m_LocalRotation: {x: 0, y: 0, z: 0, w: 1}
  m_LocalPosition: {x: 0, y: 0, z: 0}
  m_LocalScale: {x: 1, y: 1, z: 1}
  m_Children:
  - {fileID: 5034598891451612367}
  m_Father: {fileID: 0}
  m_RootOrder: 0
  m_LocalEulerAnglesHint: {x: 0, y: 0, z: 0}
--- !u!1001 &4779661128805456676
PrefabInstance:
  m_ObjectHideFlags: 0
  serializedVersion: 2
  m_Modification:
    m_TransformParent: {fileID: 4633125770816774209}
    m_Modifications:
    - target: {fileID: -8679921383154817045, guid: 11a019b25aa6a4f40a6ee602a569822d,
        type: 3}
      propertyPath: m_LocalPosition.x
      value: 0
      objectReference: {fileID: 0}
    - target: {fileID: -8679921383154817045, guid: 11a019b25aa6a4f40a6ee602a569822d,
        type: 3}
      propertyPath: m_LocalPosition.y
      value: 0
      objectReference: {fileID: 0}
    - target: {fileID: -8679921383154817045, guid: 11a019b25aa6a4f40a6ee602a569822d,
        type: 3}
      propertyPath: m_LocalPosition.z
      value: 0
      objectReference: {fileID: 0}
    - target: {fileID: -8679921383154817045, guid: 11a019b25aa6a4f40a6ee602a569822d,
        type: 3}
      propertyPath: m_LocalRotation.x
      value: 0
      objectReference: {fileID: 0}
    - target: {fileID: -8679921383154817045, guid: 11a019b25aa6a4f40a6ee602a569822d,
        type: 3}
      propertyPath: m_LocalRotation.y
      value: 0
      objectReference: {fileID: 0}
    - target: {fileID: -8679921383154817045, guid: 11a019b25aa6a4f40a6ee602a569822d,
        type: 3}
      propertyPath: m_LocalRotation.z
      value: 0
      objectReference: {fileID: 0}
    - target: {fileID: -8679921383154817045, guid: 11a019b25aa6a4f40a6ee602a569822d,
        type: 3}
      propertyPath: m_LocalRotation.w
      value: 1
      objectReference: {fileID: 0}
    - target: {fileID: -8679921383154817045, guid: 11a019b25aa6a4f40a6ee602a569822d,
        type: 3}
      propertyPath: m_RootOrder
      value: 0
      objectReference: {fileID: 0}
    - target: {fileID: -8679921383154817045, guid: 11a019b25aa6a4f40a6ee602a569822d,
        type: 3}
      propertyPath: m_LocalEulerAnglesHint.x
      value: 0
      objectReference: {fileID: 0}
    - target: {fileID: -8679921383154817045, guid: 11a019b25aa6a4f40a6ee602a569822d,
        type: 3}
      propertyPath: m_LocalEulerAnglesHint.y
      value: 0
      objectReference: {fileID: 0}
    - target: {fileID: -8679921383154817045, guid: 11a019b25aa6a4f40a6ee602a569822d,
        type: 3}
      propertyPath: m_LocalEulerAnglesHint.z
      value: 0
      objectReference: {fileID: 0}
    - target: {fileID: -1912958091094857960, guid: 11a019b25aa6a4f40a6ee602a569822d,
        type: 3}
      propertyPath: m_Materials.Array.data[0]
      value: 
      objectReference: {fileID: 2100000, guid: 27842fa0b58322e4393bc42ca2556dba, type: 2}
    - target: {fileID: -1912958091094857960, guid: 11a019b25aa6a4f40a6ee602a569822d,
        type: 3}
      propertyPath: m_CastShadows
      value: 2
      objectReference: {fileID: 0}
    - target: {fileID: -1912958091094857960, guid: 11a019b25aa6a4f40a6ee602a569822d,
        type: 3}
      propertyPath: m_ReceiveShadows
      value: 0
      objectReference: {fileID: 0}
    - target: {fileID: -900840116002235059, guid: 11a019b25aa6a4f40a6ee602a569822d,
        type: 3}
      propertyPath: m_Layer
      value: 0
      objectReference: {fileID: 0}
    - target: {fileID: 919132149155446097, guid: 11a019b25aa6a4f40a6ee602a569822d,
        type: 3}
      propertyPath: m_Name
      value: Glass
      objectReference: {fileID: 0}
    - target: {fileID: 919132149155446097, guid: 11a019b25aa6a4f40a6ee602a569822d,
        type: 3}
      propertyPath: m_Layer
      value: 0
      objectReference: {fileID: 0}
    - target: {fileID: 3734805041918091687, guid: 11a019b25aa6a4f40a6ee602a569822d,
        type: 3}
      propertyPath: m_Layer
      value: 0
      objectReference: {fileID: 0}
    - target: {fileID: 7734682849688961161, guid: 11a019b25aa6a4f40a6ee602a569822d,
        type: 3}
      propertyPath: m_Materials.Array.data[0]
      value: 
      objectReference: {fileID: 2100000, guid: 43e7a58a52f84324aab6f70a096ab1c6, type: 2}
    - target: {fileID: 7734682849688961161, guid: 11a019b25aa6a4f40a6ee602a569822d,
        type: 3}
      propertyPath: m_CastShadows
      value: 1
      objectReference: {fileID: 0}
    m_RemovedComponents: []
  m_SourcePrefab: {fileID: 100100000, guid: 11a019b25aa6a4f40a6ee602a569822d, type: 3}
--- !u!4 &5034598891451612367 stripped
Transform:
  m_CorrespondingSourceObject: {fileID: -8679921383154817045, guid: 11a019b25aa6a4f40a6ee602a569822d,
    type: 3}
  m_PrefabInstance: {fileID: 4779661128805456676}
  m_PrefabAsset: {fileID: 0}
