%YAML 1.1
%TAG !u! tag:unity3d.com,2011:
--- !u!1001 &1092047293952875683
PrefabInstance:
  m_ObjectHideFlags: 0
  serializedVersion: 2
  m_Modification:
    m_TransformParent: {fileID: 0}
    m_Modifications:
    - target: {fileID: 163711749961658632, guid: 89d07150c9dd1f242840999deb27b6f9,
        type: 3}
      propertyPath: m_Materials.Array.data[0]
      value: 
      objectReference: {fileID: 2100000, guid: 118aaaacb3d49e64698ccc415d094a29, type: 2}
    - target: {fileID: 1929526827850412325, guid: 89d07150c9dd1f242840999deb27b6f9,
        type: 3}
      propertyPath: m_Materials.Array.data[0]
      value: 
      objectReference: {fileID: 2100000, guid: 118aaaacb3d49e64698ccc415d094a29, type: 2}
    - target: {fileID: 5042142005727249867, guid: 89d07150c9dd1f242840999deb27b6f9,
        type: 3}
      propertyPath: m_RootOrder
      value: 0
      objectReference: {fileID: 0}
    - target: {fileID: 5042142005727249867, guid: 89d07150c9dd1f242840999deb27b6f9,
        type: 3}
      propertyPath: m_LocalPosition.x
      value: -0
      objectReference: {fileID: 0}
    - target: {fileID: 5042142005727249867, guid: 89d07150c9dd1f242840999deb27b6f9,
        type: 3}
      propertyPath: m_LocalPosition.y
      value: 0
      objectReference: {fileID: 0}
    - target: {fileID: 5042142005727249867, guid: 89d07150c9dd1f242840999deb27b6f9,
        type: 3}
      propertyPath: m_LocalPosition.z
      value: 0
      objectReference: {fileID: 0}
    - target: {fileID: 5042142005727249867, guid: 89d07150c9dd1f242840999deb27b6f9,
        type: 3}
      propertyPath: m_LocalRotation.w
      value: 1
      objectReference: {fileID: 0}
    - target: {fileID: 5042142005727249867, guid: 89d07150c9dd1f242840999deb27b6f9,
        type: 3}
      propertyPath: m_LocalRotation.x
      value: 0
      objectReference: {fileID: 0}
    - target: {fileID: 5042142005727249867, guid: 89d07150c9dd1f242840999deb27b6f9,
        type: 3}
      propertyPath: m_LocalRotation.y
      value: -0
      objectReference: {fileID: 0}
    - target: {fileID: 5042142005727249867, guid: 89d07150c9dd1f242840999deb27b6f9,
        type: 3}
      propertyPath: m_LocalRotation.z
      value: -0
      objectReference: {fileID: 0}
    - target: {fileID: 5042142005727249867, guid: 89d07150c9dd1f242840999deb27b6f9,
        type: 3}
      propertyPath: m_LocalEulerAnglesHint.x
      value: 0
      objectReference: {fileID: 0}
    - target: {fileID: 5042142005727249867, guid: 89d07150c9dd1f242840999deb27b6f9,
        type: 3}
      propertyPath: m_LocalEulerAnglesHint.y
      value: 0
      objectReference: {fileID: 0}
    - target: {fileID: 5042142005727249867, guid: 89d07150c9dd1f242840999deb27b6f9,
        type: 3}
      propertyPath: m_LocalEulerAnglesHint.z
      value: 0
      objectReference: {fileID: 0}
    - target: {fileID: 5670764051198812017, guid: 89d07150c9dd1f242840999deb27b6f9,
        type: 3}
      propertyPath: m_Name
      value: Hole
      objectReference: {fileID: 0}
    m_RemovedComponents: []
  m_SourcePrefab: {fileID: 100100000, guid: 89d07150c9dd1f242840999deb27b6f9, type: 3}
