%YAML 1.1
%TAG !u! tag:unity3d.com,2011:
--- !u!1001 &7176231721738361485
PrefabInstance:
  m_ObjectHideFlags: 0
  serializedVersion: 2
  m_Modification:
    m_TransformParent: {fileID: 0}
    m_Modifications:
    - target: {fileID: 732925918983384143, guid: c55875d9feef90043ac1ea3184f907a1,
        type: 3}
      propertyPath: m_Name
      value: Pipe2
      objectReference: {fileID: 0}
    - target: {fileID: 1881634059936056805, guid: c55875d9feef90043ac1ea3184f907a1,
        type: 3}
      propertyPath: m_Materials.Array.data[0]
      value: 
      objectReference: {fileID: 2100000, guid: 6369d40fb3b537a4c9b448950ba24aca, type: 2}
    - target: {fileID: 2789570218438404231, guid: c55875d9feef90043ac1ea3184f907a1,
        type: 3}
      propertyPath: m_Materials.Array.data[0]
      value: 
      objectReference: {fileID: 2100000, guid: 6369d40fb3b537a4c9b448950ba24aca, type: 2}
    - target: {fileID: 5721848348746678380, guid: c55875d9feef90043ac1ea3184f907a1,
        type: 3}
      propertyPath: m_RootOrder
      value: 0
      objectReference: {fileID: 0}
    - target: {fileID: 5721848348746678380, guid: c55875d9feef90043ac1ea3184f907a1,
        type: 3}
      propertyPath: m_LocalPosition.x
      value: 0
      objectReference: {fileID: 0}
    - target: {fileID: 5721848348746678380, guid: c55875d9feef90043ac1ea3184f907a1,
        type: 3}
      propertyPath: m_LocalPosition.y
      value: 0
      objectReference: {fileID: 0}
    - target: {fileID: 5721848348746678380, guid: c55875d9feef90043ac1ea3184f907a1,
        type: 3}
      propertyPath: m_LocalPosition.z
      value: 0
      objectReference: {fileID: 0}
    - target: {fileID: 5721848348746678380, guid: c55875d9feef90043ac1ea3184f907a1,
        type: 3}
      propertyPath: m_LocalRotation.w
      value: 1
      objectReference: {fileID: 0}
    - target: {fileID: 5721848348746678380, guid: c55875d9feef90043ac1ea3184f907a1,
        type: 3}
      propertyPath: m_LocalRotation.x
      value: 0
      objectReference: {fileID: 0}
    - target: {fileID: 5721848348746678380, guid: c55875d9feef90043ac1ea3184f907a1,
        type: 3}
      propertyPath: m_LocalRotation.y
      value: 0
      objectReference: {fileID: 0}
    - target: {fileID: 5721848348746678380, guid: c55875d9feef90043ac1ea3184f907a1,
        type: 3}
      propertyPath: m_LocalRotation.z
      value: 0
      objectReference: {fileID: 0}
    - target: {fileID: 5721848348746678380, guid: c55875d9feef90043ac1ea3184f907a1,
        type: 3}
      propertyPath: m_LocalEulerAnglesHint.x
      value: 0
      objectReference: {fileID: 0}
    - target: {fileID: 5721848348746678380, guid: c55875d9feef90043ac1ea3184f907a1,
        type: 3}
      propertyPath: m_LocalEulerAnglesHint.y
      value: 0
      objectReference: {fileID: 0}
    - target: {fileID: 5721848348746678380, guid: c55875d9feef90043ac1ea3184f907a1,
        type: 3}
      propertyPath: m_LocalEulerAnglesHint.z
      value: 0
      objectReference: {fileID: 0}
    - target: {fileID: 6267234684564415268, guid: c55875d9feef90043ac1ea3184f907a1,
        type: 3}
      propertyPath: m_Materials.Array.data[0]
      value: 
      objectReference: {fileID: 2100000, guid: 6369d40fb3b537a4c9b448950ba24aca, type: 2}
    - target: {fileID: 8181524352769352955, guid: c55875d9feef90043ac1ea3184f907a1,
        type: 3}
      propertyPath: m_Materials.Array.data[0]
      value: 
      objectReference: {fileID: 2100000, guid: 6369d40fb3b537a4c9b448950ba24aca, type: 2}
    m_RemovedComponents: []
  m_SourcePrefab: {fileID: 100100000, guid: c55875d9feef90043ac1ea3184f907a1, type: 3}
