{
    "m_SelectedDeviceId": "281640a80105",
    "m_SelectedPackage": {
        "deviceId": "281640a80105",
        "name": "com.Playcus.DrawWalls",
        "processId": 30430,
        "exited": false
    },
    "m_SelectedPriority": 0,
    "m_KnownPackagesForSerialization": [
        {
            "deviceId": "281640a80105",
            "name": "com.android.settings",
            "processId": 21883,
            "exited": true
        },
        {
            "deviceId": "281640a80105",
            "name": "com.Playcus.DrawWalls",
            "processId": 23329,
            "exited": true
        },
        {
            "deviceId": "281640a80105",
            "name": "com.Playcus.DrawWalls",
            "processId": 24823,
            "exited": true
        },
        {
            "deviceId": "281640a80105",
            "name": "com.Playcus.DrawWalls",
            "processId": 26416,
            "exited": true
        },
        {
            "deviceId": "281640a80105",
            "name": "com.Playcus.DrawWalls",
            "processId": 32639,
            "exited": true
        },
        {
            "deviceId": "281640a80105",
            "name": "com.Playcus.DrawWalls",
            "processId": 20455,
            "exited": false
        },
        {
            "deviceId": "281640a80105",
            "name": "com.Playcus.DrawWalls",
            "processId": 28858,
            "exited": false
        },
        {
            "deviceId": "281640a80105",
            "name": "com.Playcus.DrawWalls",
            "processId": 29588,
            "exited": false
        },
        {
            "deviceId": "281640a80105",
            "name": "com.Playcus.DrawWalls",
            "processId": 30430,
            "exited": false
        },
        {
            "deviceId": "000a17700405",
            "name": "com.Playcus.DrawWalls",
            "processId": 19749,
            "exited": true
        },
        {
            "deviceId": "000a17700405",
            "name": "com.Playcus.DrawWalls",
            "processId": 8340,
            "exited": true
        },
        {
            "deviceId": "000a17700405",
            "name": "com.Playcus.DrawWalls",
            "processId": 11585,
            "exited": true
        },
        {
            "deviceId": "000a17700405",
            "name": "com.Playcus.DrawWalls",
            "processId": 16292,
            "exited": true
        },
        {
            "deviceId": "000a17700405",
            "name": "com.Playcus.DrawWalls",
            "processId": 16747,
            "exited": true
        }
    ],
    "m_Tags": {
        "m_Entries": [
            {
                "m_Name": "Filter by all listed tags",
                "m_Selected": false
            },
            {
                "m_Name": "No Filter",
                "m_Selected": true
            },
            {
                "m_Name": "",
                "m_Selected": false
            },
            {
                "m_Name": "Tag Control...",
                "m_Selected": false
            },
            {
                "m_Name": "",
                "m_Selected": false
            },
            {
                "m_Name": "Unity",
                "m_Selected": false
            },
            {
                "m_Name": "CRASH",
                "m_Selected": false
            }
        ]
    },
    "m_MemoryViewerState": {
        "MemoryWindowHeight": 300.0,
        "MemoryWindowWidth": 170.0,
        "MemoryTypeEnabled": [
            true,
            true,
            true,
            true,
            true,
            true,
            true,
            true,
            true,
            true
        ],
        "MemoryGroup": 2,
        "Behavior": 0
    },
    "m_Filter": "",
    "m_FilterIsRegularExpression": false,
    "m_SymbolPaths": []
}